<?xml version="1.0" encoding="UTF-8" standalone="no"?>
<!DOCTYPE svg PUBLIC "-//W3C//DTD SVG 1.1//EN"
 "http://www.w3.org/Graphics/SVG/1.1/DTD/svg11.dtd">
<!-- Generated by graphviz version 2.47.1 (20210417.1919)
 -->
<!-- Title: snakemake_dag Pages: 1 -->
<svg width="166pt" height="260pt"
 viewBox="0.00 0.00 166.00 260.00" xmlns="http://www.w3.org/2000/svg" xmlns:xlink="http://www.w3.org/1999/xlink">
<g id="graph0" class="graph" transform="scale(1 1) rotate(0) translate(4 256)">
<title>snakemake_dag</title>
<polygon fill="white" stroke="transparent" points="-4,4 -4,-256 162,-256 162,4 -4,4"/>
<!-- 0 -->
<g id="node1" class="node">
<title>0</title>
<path fill="none" stroke="#78d856" stroke-width="2" d="M94,-36C94,-36 64,-36 64,-36 58,-36 52,-30 52,-24 52,-24 52,-12 52,-12 52,-6 58,0 64,0 64,0 94,0 94,0 100,0 106,-6 106,-12 106,-12 106,-24 106,-24 106,-30 100,-36 94,-36"/>
<text text-anchor="middle" x="79" y="-15.5" font-family="sans" font-size="10.00">all</text>
</g>
<!-- 1 -->
<g id="node2" class="node">
<title>1</title>
<path fill="none" stroke="#d8a456" stroke-width="2" d="M58,-180C58,-180 12,-180 12,-180 6,-180 0,-174 0,-168 0,-168 0,-156 0,-156 0,-150 6,-144 12,-144 12,-144 58,-144 58,-144 64,-144 70,-150 70,-156 70,-156 70,-168 70,-168 70,-174 64,-180 58,-180"/>
<text text-anchor="middle" x="35" y="-159.5" font-family="sans" font-size="10.00">transform1</text>
</g>
<!-- 1&#45;&gt;0 -->
<g id="edge1" class="edge">
<title>1&#45;&gt;0</title>
<path fill="none" stroke="grey" stroke-width="2" d="M22.11,-143.96C9.88,-125.56 -4.99,-95.71 7,-72 14.7,-56.77 29.06,-44.85 42.94,-36.2"/>
<polygon fill="grey" stroke="grey" stroke-width="2" points="45.03,-39.04 51.92,-30.99 41.52,-32.98 45.03,-39.04"/>
</g>
<!-- 4 -->
<g id="node5" class="node">
<title>4</title>
<path fill="none" stroke="#56d8c9" stroke-width="2" d="M58,-108C58,-108 28,-108 28,-108 22,-108 16,-102 16,-96 16,-96 16,-84 16,-84 16,-78 22,-72 28,-72 28,-72 58,-72 58,-72 64,-72 70,-78 70,-84 70,-84 70,-96 70,-96 70,-102 64,-108 58,-108"/>
<text text-anchor="middle" x="43" y="-87.5" font-family="sans" font-size="10.00">fit1</text>
</g>
<!-- 1&#45;&gt;4 -->
<g id="edge7" class="edge">
<title>1&#45;&gt;4</title>
<path fill="none" stroke="grey" stroke-width="2" d="M36.98,-143.7C37.86,-135.98 38.92,-126.71 39.9,-118.11"/>
<polygon fill="grey" stroke="grey" stroke-width="2" points="43.39,-118.44 41.05,-108.1 36.43,-117.64 43.39,-118.44"/>
</g>
<!-- 5 -->
<g id="node6" class="node">
<title>5</title>
<path fill="none" stroke="#56d87b" stroke-width="2" d="M130,-108C130,-108 100,-108 100,-108 94,-108 88,-102 88,-96 88,-96 88,-84 88,-84 88,-78 94,-72 100,-72 100,-72 130,-72 130,-72 136,-72 142,-78 142,-84 142,-84 142,-96 142,-96 142,-102 136,-108 130,-108"/>
<text text-anchor="middle" x="115" y="-87.5" font-family="sans" font-size="10.00">fit2</text>
</g>
<!-- 1&#45;&gt;5 -->
<g id="edge9" class="edge">
<title>1&#45;&gt;5</title>
<path fill="none" stroke="grey" stroke-width="2" d="M54.78,-143.7C64.75,-134.97 77.01,-124.24 87.86,-114.75"/>
<polygon fill="grey" stroke="grey" stroke-width="2" points="90.23,-117.32 95.45,-108.1 85.62,-112.06 90.23,-117.32"/>
</g>
<!-- 2 -->
<g id="node3" class="node">
<title>2</title>
<path fill="none" stroke="#56a2d8" stroke-width="2" d="M94,-252C94,-252 64,-252 64,-252 58,-252 52,-246 52,-240 52,-240 52,-228 52,-228 52,-222 58,-216 64,-216 64,-216 94,-216 94,-216 100,-216 106,-222 106,-228 106,-228 106,-240 106,-240 106,-246 100,-252 94,-252"/>
<text text-anchor="middle" x="79" y="-231.5" font-family="sans" font-size="10.00">read</text>
</g>
<!-- 2&#45;&gt;1 -->
<g id="edge5" class="edge">
<title>2&#45;&gt;1</title>
<path fill="none" stroke="grey" stroke-width="2" d="M68.12,-215.7C63.01,-207.56 56.8,-197.69 51.16,-188.7"/>
<polygon fill="grey" stroke="grey" stroke-width="2" points="54.04,-186.71 45.75,-180.1 48.11,-190.43 54.04,-186.71"/>
</g>
<!-- 3 -->
<g id="node4" class="node">
<title>3</title>
<path fill="none" stroke="#d85656" stroke-width="2" d="M146,-180C146,-180 100,-180 100,-180 94,-180 88,-174 88,-168 88,-168 88,-156 88,-156 88,-150 94,-144 100,-144 100,-144 146,-144 146,-144 152,-144 158,-150 158,-156 158,-156 158,-168 158,-168 158,-174 152,-180 146,-180"/>
<text text-anchor="middle" x="123" y="-159.5" font-family="sans" font-size="10.00">transform2</text>
</g>
<!-- 2&#45;&gt;3 -->
<g id="edge6" class="edge">
<title>2&#45;&gt;3</title>
<path fill="none" stroke="grey" stroke-width="2" d="M89.88,-215.7C94.99,-207.56 101.2,-197.69 106.84,-188.7"/>
<polygon fill="grey" stroke="grey" stroke-width="2" points="109.89,-190.43 112.25,-180.1 103.96,-186.71 109.89,-190.43"/>
</g>
<!-- 3&#45;&gt;0 -->
<g id="edge2" class="edge">
<title>3&#45;&gt;0</title>
<path fill="none" stroke="grey" stroke-width="2" d="M135.89,-143.96C148.12,-125.56 162.99,-95.71 151,-72 143.3,-56.77 128.94,-44.85 115.06,-36.2"/>
<polygon fill="grey" stroke="grey" stroke-width="2" points="116.48,-32.98 106.08,-30.99 112.97,-39.04 116.48,-32.98"/>
</g>
<!-- 3&#45;&gt;4 -->
<g id="edge8" class="edge">
<title>3&#45;&gt;4</title>
<path fill="none" stroke="grey" stroke-width="2" d="M103.22,-143.7C93.25,-134.97 80.99,-124.24 70.14,-114.75"/>
<polygon fill="grey" stroke="grey" stroke-width="2" points="72.38,-112.06 62.55,-108.1 67.77,-117.32 72.38,-112.06"/>
</g>
<!-- 3&#45;&gt;5 -->
<g id="edge10" class="edge">
<title>3&#45;&gt;5</title>
<path fill="none" stroke="grey" stroke-width="2" d="M121.02,-143.7C120.14,-135.98 119.08,-126.71 118.1,-118.11"/>
<polygon fill="grey" stroke="grey" stroke-width="2" points="121.57,-117.64 116.95,-108.1 114.61,-118.44 121.57,-117.64"/>
</g>
<!-- 4&#45;&gt;0 -->
<g id="edge3" class="edge">
<title>4&#45;&gt;0</title>
<path fill="none" stroke="grey" stroke-width="2" d="M51.9,-71.7C56,-63.73 60.95,-54.1 65.49,-45.26"/>
<polygon fill="grey" stroke="grey" stroke-width="2" points="68.74,-46.6 70.2,-36.1 62.52,-43.4 68.74,-46.6"/>
</g>
<!-- 5&#45;&gt;0 -->
<g id="edge4" class="edge">
<title>5&#45;&gt;0</title>
<path fill="none" stroke="grey" stroke-width="2" d="M106.1,-71.7C102,-63.73 97.05,-54.1 92.51,-45.26"/>
<polygon fill="grey" stroke="grey" stroke-width="2" points="95.48,-43.4 87.8,-36.1 89.26,-46.6 95.48,-43.4"/>
</g>
</g>
</svg>
